File_name,File_description,Public_download_URL,Conversion_formula,Measurement_unit,Source_spatial_resolution_m,Citation
sol_log.wpg2_m_30m_*..*cm_2001..2017_v0.13_wgs84.tif,Log coarse fragments in percent,https://doi.org/10.5281/zenodo.4091153,expm1(x/10),%,30,https://doi.org/10.1038/s41598-021-85639-y
sol_log.oc_m_30m_*..*cm_2017_v0.13_wgs84.tif,Log soil organic carbon in permilles,https://doi.org/10.5281/zenodo.4090926,expm1(x/10),‰,30,https://doi.org/10.1038/s41598-021-85639-y
sol_log.c_tot_m_30m_*..*cm_2017_v0.13_wgs84.tif,Log total soil carbon in permilles,https://doi.org/10.5281/zenodo.4088063,expm1(x/10),‰,30,https://doi.org/10.1038/s41598-021-85639-y
sol_log.n_tot_ncs_m_30m_*..*cm_2017_v0.13_wgs84.tif,Log total N in permilles,https://doi.org/10.5281/zenodo.4090385,expm1(x/100),‰,30,https://doi.org/10.1038/s41598-021-85639-y
sol_log.al_mehlich3_m_30m_*..*cm_2017_v0.13_wgs84.tif,"Log Aluminum, Mehlich3 Extractable in ppm",https://doi.org/10.5281/zenodo.4087935,expm1(x/10),ppm,30,https://doi.org/10.1038/s41598-021-85639-y
sol_log.ca_mehlich3_m_30m_*..*cm_2017_v0.13_wgs84.tif,"Log Calcium, Mehlich3 Extractable in ppm",https://doi.org/10.5281/zenodo.4087971,expm1(x/10),ppm,30,https://doi.org/10.1038/s41598-021-85639-y
sol_log.fe_mehlich3_m_30m_*..*cm_2017_v0.13_wgs84.tif,"Log Iron, Mehlich3 Extractable in ppm",https://doi.org/10.5281/zenodo.4088215,expm1(x/10),ppm,30,https://doi.org/10.1038/s41598-021-85639-y
sol_log.k_mehlich3_m_30m_*..*cm_2017_v0.13_wgs84.tif,"Log Potassium, Mehlich3 Extractable in ppm",https://doi.org/10.5281/zenodo.4090297,expm1(x/10),ppm,30,https://doi.org/10.1038/s41598-021-85639-y
sol_log.mg_mehlich3_m_30m_*..*cm_2017_v0.13_wgs84.tif,"Log Magnesium, Mehlich3 Extractable in ppm",https://doi.org/10.5281/zenodo.4090373,expm1(x/10),ppm,30,https://doi.org/10.1038/s41598-021-85639-y
sol_log.p_mehlich3_m_30m_*..*cm_2017_v0.13_wgs84.tif,"Log Phosphorus, Mehlich3 Extractable in ppm",https://doi.org/10.5281/zenodo.4090980,expm1(x/10),ppm,30,https://doi.org/10.1038/s41598-021-85639-y
sol_log.s_mehlich3_m_30m_*..*cm_2017_v0.13_wgs84.tif,"Log Sulfur, Mehlich3 Extractable in ppm",https://doi.org/10.5281/zenodo.4091141,expm1(x/10),ppm,30,https://doi.org/10.1038/s41598-021-85639-y
sol_log.zn_mehlich3_m_30m_*..*cm_2017_v0.13_wgs84.tif,"Log Zinc, Mehlich3 Extractable in ppm",https://doi.org/10.5281/zenodo.4091170,expm1(x/10),ppm,30,https://doi.org/10.1038/s41598-021-85639-y
sol_log.ecec.f_m_30m_*..*cm_2017_v0.13_wgs84.tif,"Log Cation Exchange Capacity, Effective, CMS derived value default in cmol(+)/kg",https://doi.org/10.5281/zenodo.4088112,expm1(x/10),cmol(+)/kg,30,https://doi.org/10.1038/s41598-021-85639-y
sol_ph_h2o_m_30m_*..*cm_2017_v0.13_wgs84.tif,"Soil pH, 1:1 Soil-Water Suspension",https://doi.org/10.5281/zenodo.4073236,x/10,-,30,https://doi.org/10.1038/s41598-021-85639-y
sol_clay_tot_psa_m_30m_*..*cm_2017_v0.13_wgs84.tif,Soil clay content in %,https://doi.org/10.5281/zenodo.4085159,x,%,30,https://doi.org/10.1038/s41598-021-85639-y
sol_silt_tot_psa_m_30m_*..*cm_2017_v0.13_wgs84.tif,Soil silt content in %,https://doi.org/10.5281/zenodo.4094609,x,%,30,https://doi.org/10.1038/s41598-021-85639-y
sol_sand_tot_psa_m_30m_*..*cm_2017_v0.13_wgs84.tif,Soil sand content in %,https://doi.org/10.5281/zenodo.4094606,x,%,30,https://doi.org/10.1038/s41598-021-85639-y
sol_db_od_m_30m_*..*cm_2017_v0.13_wgs84.tif,"Soil bulk density, <2mm fraction, ovendry g/cc",https://doi.org/10.5281/zenodo.4087904,x/100,g/cc,30,https://doi.org/10.1038/s41598-021-85639-y
sol_dbr_m_30m_*..*cm_2017_v013_wgs84.tif,Depth to bedrock,https://doi.org/10.5281/zenodo.4094615,x,cm,30,https://doi.org/10.1038/s41598-021-85639-y
sol_texture.class_m_30m_*..*cm_2001..2017_v0.13_wgs84.tif,Soil texture class based on USDA,https://doi.org/10.5281/zenodo.4094615,x,-,30,https://doi.org/10.1038/s41598-021-85639-y
dtm_elevation_aw3d30.nasadem_m_30m_s0..0cm_2017_v0.1.tif,Digital terrain elevation model based on AW3D30 and NASADEM,https://www.eorc.jaxa.jp/ALOS/en/aw3d30/index.htm,x,m,30,https://doi.org/10.1038/s41598-021-85639-y
dtm_hillshade_aw3d30.nasadem_m_30m_s0..0cm_2017_v0.1.tif,Hillshading based on the AW3D30 and NASADEM,https://www.eorc.jaxa.jp/ALOS/en/aw3d30/index.htm,x,-,30,https://doi.org/10.1038/s41598-021-85639-y
dtm_saga.twi_aw3d30.nasadem.100m_m_30m_s0..0cm_2017_v0.1.tif,SAGA Topographic Wetness Index downscaled from 100 m,https://www.eorc.jaxa.jp/ALOS/en/aw3d30/index.htm,x,-,30,https://doi.org/10.1038/s41598-021-85639-y
dtm_slope_aw3d30.nasadem_m_30m_s0..0cm_2017_v0.1.tif,Slope map in degrees,https://www.eorc.jaxa.jp/ALOS/en/aw3d30/index.htm,x,degree,30,https://doi.org/10.1038/s41598-021-85639-y
dtm_log.catchment_aw3d30.nasadem.100m_m_30m_s0..0cm_2017_v0.1.tif,Log cachment area downscaled from 100 m,https://www.eorc.jaxa.jp/ALOS/en/aw3d30/index.htm,x,m2,30,https://doi.org/10.1038/s41598-021-85639-y
lcv_land.cover_esa.cci.l4_m_30m_s0..0cm_2016_v1.0.tif,ESA CCI Land Cover (LC) map at 20m over Africa based on 1 year of Sentinel-2A observations,http://2016africalandcover20m.esrin.esa.int/,x,-,20,http://2016africalandcover20m.esrin.esa.int/
lcv_b8a_sentinel.s2l2a_d_30m_s0..0cm_2019.s1_v0.1.tif,Sentinel 2 Band 8A – Narrow NIR cloud-free mosaick median 2019 s1,https://registry.opendata.aws/sentinel-2/,x,-,30,https://doi.org/10.1038/s41598-021-85639-y
lcv_b8a_sentinel.s2l2a_iqr_30m_s0..0cm_2019.s1_v0.1.tif,Sentinel 2 Band 8A – Narrow NIR cloud-free mosaick IQR 2019 s1,https://registry.opendata.aws/sentinel-2/,x,-,30,https://doi.org/10.1038/s41598-021-85639-y
lcv_b8a_sentinel.s2l2a_d_30m_s0..0cm_2019.s2_v0.1.tif,Sentinel 2 Band 8A – Narrow NIR cloud-free mosaick median 2019 s2,https://registry.opendata.aws/sentinel-2/,x,-,30,https://doi.org/10.1038/s41598-021-85639-y
lcv_b8a_sentinel.s2l2a_iqr_30m_s0..0cm_2019.s2_v0.1.tif,Sentinel 2 Band 8A – Narrow NIR cloud-free mosaick IQR 2019 s2,https://registry.opendata.aws/sentinel-2/,x,-,30,https://doi.org/10.1038/s41598-021-85639-y
lcv_water.occurance_jrc.surfacewater_p_30m_b0..200cm_1984..2018_v1.1.tif,Surface water occurrence probability. Based on the Pekel et al. (2016).,https://global-surface-water.appspot.com/,x,-,30,https://dx.doi.org/10.1038/nature20584
lcv_landsat.red_wri.forestwatch_m_30m_s0..0cm_*_v1.0.tif,Global Forest Change 2000–2018 v1.6 red band cloud free,http://earthenginepartners.appspot.com/science-2013-global-forest,x,-,30,http://www.sciencemag.org/content/342/6160/850
lcv_landsat.nir_wri.forestwatch_m_30m_s0..0cm_*_v1.0.tif,Global Forest Change 2000–2018 v1.6 NIR band cloud free,http://earthenginepartners.appspot.com/science-2013-global-forest,x,-,30,http://www.sciencemag.org/content/342/6160/850
lcv_landsat.swir1_wri.forestwatch_m_30m_s0..0cm_*_v1.0.tif,Global Forest Change 2000–2018 v1.6 SWIR1 band cloud free,http://earthenginepartners.appspot.com/science-2013-global-forest,x,-,30,http://www.sciencemag.org/content/342/6160/850
lcv_landsat.swir2_wri.forestwatch_m_30m_s0..0cm_*_v1.0.tif,Global Forest Change 2000–2018 v1.6 SWIR2 band cloud free,http://earthenginepartners.appspot.com/science-2013-global-forest,x,-,30,http://www.sciencemag.org/content/342/6160/850